[
  {
    "lat": 51.9,
    "long": -2.08,
    "label": "0A84 - Meshtastic 0A84"
  },
  {
    "lat": 51.48,
    "long": -3.26,
    "label": "1C7F - Meshtastic 1C7F"
  },
  {
    "lat": 52.39,
    "long": -2.02,
    "label": "4BDC - Meshtastic 4BDC"
  },
  {
    "lat": 51.58,
    "long": -2.84,
    "label": "5194 - Meshtastic 5194"
  },
  {
    "lat": 51.87,
    "long": -2.45,
    "label": "52B4 - Meshtastic 52B4"
  },
  {
    "lat": 51.95,
    "long": -2.06,
    "label": "5314 - Meshtastic 5314"
  },
  {
    "lat": 51.89,
    "long": -2.09,
    "label": "5F20 - Meshtastic 5F20"
  },
  {
    "lat": 51.51,
    "long": -3.12,
    "label": "77DO - GW0POA-1"
  },
  {
    "lat": 51.9,
    "long": -2.07,
    "label": "8064 - Meshtastic 8064"
  },
  {
    "lat": 51.89,
    "long": -2.1,
    "label": "856C - Meshtastic 856C"
  },
  {
    "lat": 52.37,
    "long": -2.59,
    "label": "8CBE - KW-YD"
  },
  {
    "lat": 51.85,
    "long": -2.26,
    "label": "8E1C - Meshtastic 8E1C"
  },
  {
    "lat": 51.58,
    "long": -2.84,
    "label": "8EC0 - Ogi"
  },
  {
    "lat": 51.89,
    "long": -2.06,
    "label": "9154 - Meshtastic 9154"
  },
  {
    "lat": 51.47,
    "long": -2.82,
    "label": "9290 - Meshtastic 9290"
  },
  {
    "lat": 51.63,
    "long": -2.69,
    "label": "A77C - Meshtastic a77c"
  },
  {
    "lat": 51.49,
    "long": -2.15,
    "label": "ACA4 - Meshtastic ACA4"
  },
  {
    "lat": 51.59,
    "long": -2.83,
    "label": "B068 - Meshtastic B068"
  },
  {
    "lat": 52.5,
    "long": -2.2,
    "label": "B1D - Base 1 DY6"
  },
  {
    "lat": 51.48,
    "long": -3.26,
    "label": "BAC4 - BOBS ATTIC CF5"
  },
  {
    "lat": 51.95,
    "long": -2.06,
    "label": "BBBC - BillBag2 Bishops Cleeve"
  },
  {
    "lat": 51.9,
    "long": -2.12,
    "label": "BFE8 - Meshtastic BFE8"
  },
  {
    "lat": 51.47,
    "long": -2.51,
    "label": "BRS3 - Bristol Test"
  },
  {
    "lat": 51.51,
    "long": -3.22,
    "label": "BS1 - Base Station"
  },
  {
    "lat": 51.48,
    "long": -3.26,
    "label": "BTE - BOBS t echo"
  },
  {
    "lat": 51.49,
    "long": -2.48,
    "label": "C494 - Meshtastic C494"
  },
  {
    "lat": 51.34,
    "long": -2.79,
    "label": "CA20 - CA20 MOBILE 2E0DDB"
  },
  {
    "lat": 51.89,
    "long": -2.04,
    "label": "CE - Chelt_East"
  },
  {
    "lat": 51.48,
    "long": -2.78,
    "label": "CYDR - Cydertastic"
  },
  {
    "lat": 51.93,
    "long": -2.1,
    "label": "DDA0 - Meshtastic DDAO"
  },
  {
    "lat": 51.9,
    "long": -2.12,
    "label": "DAVE - Dave"
  },
  {
    "lat": 52.23,
    "long": -2.37,
    "label": "F5BA - AJ-Echo"
  },
  {
    "lat": 51.54,
    "long": -2.42,
    "label": "FJS2 - Meshtastic 7bf4"
  },
  {
    "lat": 51.4,
    "long": -2.5,
    "label": "KILL - TOO MUCH TELEMETRY IS KILLING THE MESH"
  },
  {
    "lat": 52.52,
    "long": -2.13,
    "label": "MLKN - MilkingBankNode"
  },
  {
    "lat": 51.92,
    "long": -2.09,
    "label": "M6CJ - M6CJM"
  },
  {
    "lat": 52.34,
    "long": -2.43,
    "label": "N4B - Clows Top Yagi"
  },
  {
    "lat": 52.37,
    "long": -2.59,
    "label": "RF-P - RFUK-POLE"
  },
  {
    "lat": 51.75,
    "long": -2.22,
    "label": "SBSE - Me!"
  },
  {
    "lat": 52.23,
    "long": -2.01,
    "label": "STCK - Stockgreen"
  },
  {
    "lat": 51.82,
    "long": -2.53,
    "label": "STEV - SteveFOD"
  },
  {
    "lat": 51.87,
    "long": -2.45,
    "label": "STV1 - ForestofDeanGL17BASE"
  },
  {
    "lat": 51.61,
    "long": -3.03,
    "label": "VLKY - Valkyrie_Mobile"
  }
] 

